{
  "project_info": {
    "project_number": "735854376925",
    "firebase_url": "https://o-ptit-dej-default-rtdb.europe-west1.firebasedatabase.app",
    "project_id": "o-ptit-dej",
    "storage_bucket": "o-ptit-dej.appspot.com"
  },
  "client": [
    {
      "client_info": {
        "mobilesdk_app_id": "1:735854376925:android:6c98d0bdb7b93bf025e834",
        "android_client_info": {
          "package_name": "fr.epitech.optitdej"
        }
      },
      "oauth_client": [
        {
          "client_id": "735854376925-cosle18j6ela71gmrjp9876c9oieh720.apps.googleusercontent.com",
          "client_type": 3
        }
      ],
      "api_key": [
        {
          "current_key": "AIzaSyBnplbb_XX2uzBvIuKc4-C-57xiZ1Zx6c8"
        }
      ],
      "services": {
        "appinvite_service": {
          "other_platform_oauth_client": [
            {
              "client_id": "735854376925-cosle18j6ela71gmrjp9876c9oieh720.apps.googleusercontent.com",
              "client_type": 3
            }
          ]
        }
      }
    }
  ],
  "configuration_version": "1"
}